Binomial change point analysis with mcp • mcp
…
It takes two change points (cp_*) - one between each segment.

empty$func_y is now a function that can predict data given these parameters. If you are in a reasonable R editor, type empty$func_y( and press TAB to see the required arguments. I came up with some values below, including change points at \(year = 25\) and \(year = 65\). Notice that because binomial() defaults to the link function link = "logit", the intercept and slopes are on a logit scale. Briefly, this extends the narrow range of binomial rates (0-1) to an infinite logit scale from minus infinity to plus infinity. This will be important later when we set priors.

library(tibble)
data = tibble(
  year = 1901:2000,  # evaluate for each of these
  N = sample(10:20, size = 100, replace = TRUE),  # number of trials
  y = empty$func_y(year, N, 2, 0, -0.2, 0.05, 1925, 1965)
)

data

## # A tibble: 100 x 3
##     year     N     y
##    <int> <int> <int>
##  1  1901    13    12
##  2  1902    17    16
##  3  1903    13    12
##  4  1904    10     9
##  5  1905    11    11
##  6  1906    13    11
##  7  1907    17    15
##  8  1908    20    17
##  9  1909    14    12
## 10  1910    18    18
## # ... with 90 more rows
…
