Poisson change point analysis • mcp
…
Coal mining disasters

A dataset on coal mining disasters has grown very popular in the change point literature (available in boot::coal). It contains a timestamp of each coal mining disaster from 1851 to 1962. By binning the number of events within each year (fixed time frame), we have something very Poisson-friendly:

# Number of disasters by year
library(dplyr, warn.conflicts = FALSE)
df = round(boot::coal) %>%
  group_by(date) %>%
  count()

# See it
df

## # A tibble: 81 x 2
## # Groups:   date [81]
##     date     n
##    <dbl> <int>
##  1  1851     1
##  2  1852     7
##  3  1853     5
##  4  1854     1
##  5  1856     1
##  6  1857     5
##  7  1858     4
##  8  1859     1
##  9  1860     2
## 10  1861     5
## # ... with 71 more rows
…
