Testing • mcp
…
            2019-11-05

      testing.Rmd

# Number of disasters by year
library(dplyr)
data = round(boot::coal) %>% 
  group_by(date) %>% 
  count()

# See it
data

## # A tibble: 81 x 2
## # Groups:   date [81]
##     date     n
##    <dbl> <int>
##  1  1851     1
##  2  1852     7
##  3  1853     5
##  4  1854     1
##  5  1856     1
##  6  1857     5
##  7  1858     4
##  8  1859     1
##  9  1860     2
## 10  1861     5
## # ... with 71 more rows
…
