Varying change points with mcp • mcp
…
    # Varying: zero-centered and 10 between each level
    cp_1_id = 10 * (id_numeric - mean(id_numeric))
  )
)

data

## # A tibble: 180 x 4
##        x id    id_numeric     y
##    <dbl> <chr>      <dbl> <dbl>
##  1  82.9 Clark          3  36.5
##  2  41.6 Clark          3  22.0
##  3  33.8 Clark          3  19.7
##  4  64.2 Clark          3  28.6
##  5  77.2 Clark          3  38.1
##  6  29.0 Clark          3  19.1
##  7  26.2 Clark          3  18.1
##  8  20.8 Clark          3  19.7
##  9  52.1 Clark          3  22.7
## 10  54.4 Clark          3  24.3
## # … with 170 more rows
…
